Routing using OpenRouteService • ORSRouting
…
# API keys are stored in the ORS_TOKEN environment variable
ors <- ors_instance(server = "public")

The ORS instance is then attached to the session and is automatically detected by all other functions. To perform a simple routing request, run ors_inspect:

ors_inspect(pharma[1:2, ], profile = "driving-car", extra_info = "surface")
#> Simple feature collection with 139 features and 9 fields
#> Geometry type: LINESTRING
#> Dimension:     XY
#> Bounding box:  xmin: -0.727928 ymin: 52.5876 xmax: -0.704255 ymax: 52.66963
#> Geodetic CRS:  WGS 84
#> # A tibble: 139 × 10
#>    name       distance duration avgspeed elevation  type instruction exit_number
#>  * <chr>           [m]      [s]   [km/h]       [m] <int> <chr>             <int>
#>  1 Market Pl…    19.5      7        10.0      148     11 Head west …          NA
#>  2 Orange St…    25.0      2.06     43.6      148      1 Turn right…          NA
#>  3 Orange St…    23.0      1.89     43.8      148      1 Turn right…          NA
#>  4 Orange St…     7.92     0.65     43.9      148      1 Turn right…          NA
#>  5 Orange St…    16.4      1.35     43.8      148      1 Turn right…          NA
#>  6 Orange St…    23.4      1.93     43.6      148      1 Turn right…          NA
#>  7 Orange St…    63.8      5.25     43.7      148      1 Turn right…          NA
#>  8 Orange St…    81.8      6.73     43.7      148      1 Turn right…          NA
#>  9 Orange St…    40.2      3.31     43.7      147.     1 Turn right…          NA
#> 10 Orange St…    42.7      3.52     43.7      147.     1 Turn right…          NA
#> # ℹ 129 more rows
#> # ℹ 2 more variables: surface <fct>, geometry <LINESTRING [°]>
…
