…
`ors_inspect` returns all requested information on a single route,
i.e. just one route but lots of data:

``` r
insp <- ors_inspect(sam[1, ], sam[2, ], radiuses = -1)
insp
#> Simple feature collection with 145 features and 5 fields
#> Geometry type: GEOMETRY
#> Dimension:     XY
#> Bounding box:  xmin: -0.602003 ymin: 52.59134 xmax: -0.52411 ymax: 52.62225
#> Geodetic CRS:  WGS 84
#> # A tibble: 145 × 6
#>    names       distance duration avgspeed elevation                     geometry
#>  * <chr>            [m]      [s]   [km/h]       [m]             <LINESTRING [°]>
#>  1 <NA>            8.64     1.58     19.7      70.6 (-0.585927 52.62225, -0.585…
#>  2 <NA>           14.4      2.64     19.7      70.8 (-0.585971 52.62218, -0.585…
#>  3 <NA>           24.2      4.43     19.7      70.9 (-0.585928 52.62205, -0.585…
#>  4 <NA>           98.8     18.1      19.7      70.9 (-0.585859 52.62184, -0.585…
#>  5 <NA>           49.7      9.09     19.7      71   (-0.58591 52.62095, -0.5859…
#>  6 Ketton Road    64.1      7.7      30.0      69.4 (-0.585936 52.6205, -0.5850…
#>  7 Ketton Road   112.      13.4      30.0      65.9 (-0.585003 52.62039, -0.583…
#>  8 Ketton Road    96.4     11.6      30.0      58.2 (-0.583401 52.62013, -0.582…
#>  9 Ketton Road    34.4      4.13     30        56.1 (-0.582078 52.6198, -0.5816…
#> 10 Ketton Road     7.39     0.89     29.9      55.8 (-0.581606 52.61968, -0.581…
#> # … with 135 more rows
#> # ℹ Use `print(n = ...)` to see more rows
```
…
